kostky\kostky\view\GameFrame$1.class
kostky\kostky\view\MainMenu$4.class
kostky\kostky\Settings.class
kostky\kostky\view\GameFrame.class
kostky\kostky\view\MainMenu$1.class
kostky\kostky\Kostky.class
kostky\kostky\view\Statistiky$1.class
kostky\kostky\view\Statistiky.class
kostky\kostky\view\MainMenu$2.class
kostky\kostky\view\MainMenu$3.class
kostky\kostky\view\SettingsFrame$1.class
kostky\kostky\view\SettingsFrame$2.class
kostky\kostky\view\ImagePanel.class
kostky\kostky\view\GameFrame$2.class
kostky\kostky\view\MainMenu.class
kostky\kostky\view\SettingsFrame.class
